<svg width="16" height="16" viewBox="0 0 16 16" fill="none" xmlns="http://www.w3.org/2000/svg">
<path d="M3.0979 8.21045H13.3233" stroke="white" stroke-width="2.95785" stroke-linecap="round"/>
<path d="M8.21057 13.7142V2.70667" stroke="white" stroke-width="3.0689" stroke-linecap="round"/>
</svg>
