<svg width="161" height="161" viewBox="0 0 161 161" fill="none" xmlns="http://www.w3.org/2000/svg">
<rect width="161" height="161" rx="18" fill="#F2F2F2"/>
<path d="M106.398 77.9022L102.334 73.8391C101.639 73.1441 101.078 71.7809 101.078 70.8186V65.0447C101.078 62.6924 99.1535 60.7678 96.8012 60.7678H91.0541C90.0917 60.7678 88.7285 60.2064 88.0335 59.5114L83.9704 55.4484C82.3131 53.7911 79.5866 53.7911 77.9292 55.4484L73.8127 59.5114C73.1444 60.2064 71.7812 60.7678 70.7921 60.7678H65.045C62.6927 60.7678 60.7681 62.6924 60.7681 65.0447V70.7918C60.7681 71.7541 60.2067 73.1174 59.5117 73.8124L55.4487 77.8755C53.7914 79.5328 53.7914 82.2593 55.4487 83.9166L59.5117 87.9797C60.2067 88.6747 60.7681 90.038 60.7681 91.0003V96.7474C60.7681 99.0997 62.6927 101.024 65.045 101.024H70.7921C71.7544 101.024 73.1177 101.586 73.8127 102.281L77.8758 106.344C79.5331 108.001 82.2596 108.001 83.9169 106.344L87.98 102.281C88.675 101.586 90.0383 101.024 91.0006 101.024H96.7477C99.1 101.024 101.025 99.0997 101.025 96.7474V91.0003C101.025 90.038 101.586 88.6747 102.281 87.9797L106.344 83.9166C108.082 82.2861 108.082 79.5595 106.398 77.9022ZM70.2308 72.9036C70.2308 71.4334 71.4337 70.2305 72.9039 70.2305C74.3741 70.2305 75.5769 71.4334 75.5769 72.9036C75.5769 74.3737 74.4008 75.5766 72.9039 75.5766C71.4337 75.5766 70.2308 74.3737 70.2308 72.9036ZM74.3206 90.3587C73.9196 90.7597 73.4117 90.9468 72.9039 90.9468C72.396 90.9468 71.8881 90.7597 71.4871 90.3587C70.7119 89.5836 70.7119 88.3005 71.4871 87.5253L87.5256 71.4868C88.3008 70.7116 89.5839 70.7116 90.3591 71.4868C91.1342 72.262 91.1342 73.5451 90.3591 74.3203L74.3206 90.3587ZM88.9423 91.6151C87.4454 91.6151 86.2425 90.4122 86.2425 88.942C86.2425 87.4718 87.4454 86.2689 88.9156 86.2689C90.3858 86.2689 91.5887 87.4718 91.5887 88.942C91.5887 90.4122 90.4125 91.6151 88.9423 91.6151Z" fill="#00AA13"/>
</svg>
